…
```r
spec2a_tbl %>% filter(id==1098)
```

```
## # A tibble: 31 x 7
##       id days_since_appe… domain   score branch posttreatment pretreatment
##    <dbl>            <int> <chr>    <dbl> <chr>          <dbl>        <dbl>
##  1  1098                2 think… -0.862  treat…          0           0.916
##  2  1098                5 bloom… -0.156  treat…          0           0    
##  3  1098                5 boing… -0.778  treat…          0           0    
##  4  1098               21 thehi…  0.166  treat…          0           0    
##  5  1098               15 youtu…  0.0634 treat…          3.53        4.22 
##  6  1098                5 youtu…  0.0634 treat…          3.53        4.22 
##  7  1098                2 youtu…  0.0634 treat…          3.53        4.22 
##  8  1098               18 youtu…  0.0634 treat…          3.53        4.22 
##  9  1098               21 youtu…  0.0634 treat…          3.53        4.22 
## 10  1098                1 youtu…  0.0634 treat…          3.53        4.22 
## # ... with 21 more rows
```
…
```r
spec2c_tbl %>% filter(id==1098)
```

```
## # A tibble: 31 x 7
##       id days_since_appe… domain branch   score posttreatment pretreatment
##    <dbl>            <int> <chr>  <chr>    <dbl>         <dbl>        <dbl>
##  1  1098                1 youtu… treat…  0.0634             0      -0.638 
##  2  1098                2 think… treat… -0.862              0       0.767 
##  3  1098                2 youtu… treat…  0.0634             0       0.0551
##  4  1098                2 amazo… treat…  0.0362             0      -1.81  
##  5  1098                4 theda… treat… -0.456              0       0     
##  6  1098                4 amazo… treat…  0.0362             0      -0.489 
##  7  1098                4 youtu… treat…  0.0634             0      -1.00  
##  8  1098                4 bbc.c… treat… -0.261              0       0.0427
##  9  1098                5 twitt… treat… -0.218              0      -1.52  
## 10  1098                5 bloom… treat… -0.156              0       0     
## # ... with 21 more rows
```
…
